Uniones de Transformacion
…
Uniones de Transformacion

Ditz Yanina

2022-05-15

Repaso

Una clave primaria identifica nicamente una observacin en su propia
tabla. Una clave fornea nicamente identifica una observacin en otra
tabla. Una forma de verificar cuando una clave es primaria es usando
count() con las claves primarias y buscar las entradas con n mayor a
uno. De esta manera se verifica la forma nica de observacin:

## # A tibble: 336,776 x 19
##     anio   mes   dia horario_salida salida_programada atraso_salida
##    <int> <int> <int>          <int>             <int>         <dbl>
##  1  2013     1     1            517               515             2
##  2  2013     1     1            533               529             4
##  3  2013     1     1            542               540             2
##  4  2013     1     1            544               545            -1
##  5  2013     1     1            554               600            -6
##  6  2013     1     1            554               558            -4
##  7  2013     1     1            555               600            -5
##  8  2013     1     1            557               600            -3
##  9  2013     1     1            557               600            -3
## 10  2013     1     1            558               600            -2
## # ... with 336,766 more rows, and 13 more variables: horario_llegada <int>,
## #   llegada_programada <int>, atraso_llegada <dbl>, aerolinea <chr>,
## #   vuelo <int>, codigo_cola <chr>, origen <chr>, destino <chr>,
## #   tiempo_vuelo <dbl>, distancia <dbl>, hora <dbl>, minuto <dbl>,
## #   fecha_hora <dttm>

## # A tibble: 3,322 x 9
##    codigo_cola  anio tipo           fabricante modelo motores asientos velocidad
##    <chr>       <int> <chr>          <chr>      <chr>    <int>    <int>     <int>
##  1 N10156       2004 Ala fija mult~ EMBRAER    EMB-1~       2       55        NA
##  2 N102UW       1998 Ala fija mult~ AIRBUS IN~ A320-~       2      182        NA
##  3 N103US       1999 Ala fija mult~ AIRBUS IN~ A320-~       2      182        NA
##  4 N104UW       1999 Ala fija mult~ AIRBUS IN~ A320-~       2      182        NA
##  5 N10575       2002 Ala fija mult~ EMBRAER    EMB-1~       2       55        NA
##  6 N105UW       1999 Ala fija mult~ AIRBUS IN~ A320-~       2      182        NA
##  7 N107US       1999 Ala fija mult~ AIRBUS IN~ A320-~       2      182        NA
##  8 N108UW       1999 Ala fija mult~ AIRBUS IN~ A320-~       2      182        NA
##  9 N109UW       1999 Ala fija mult~ AIRBUS IN~ A320-~       2      182        NA
## 10 N110UW       1999 Ala fija mult~ AIRBUS IN~ A320-~       2      182        NA
## # ... with 3,312 more rows, and 1 more variable: tipo_motor <chr>
…
##  4 B6        JetBlue Airways            
##  5 DL        Delta Air Lines Inc.       
##  6 EV        ExpressJet Airlines Inc.   
##  7 F9        Frontier Airlines Inc.     
##  8 FL        AirTran Airways Corporation
##  9 HA        Hawaiian Airlines Inc.     
## 10 MQ        Envoy Air                  
## 11 OO        SkyWest Airlines Inc.      
## 12 UA        United Air Lines Inc.      
## 13 US        US Airways Inc.            
## 14 VX        Virgin America             
## 15 WN        Southwest Airlines Co.     
## 16 YV        Mesa Airlines Inc.

## # A tibble: 1,458 x 8
##    codigo_aeropuerto nombre  latitud longitud altura zona_horaria horario_verano
##    <chr>             <chr>     <dbl>    <dbl>  <dbl>        <dbl> <chr>         
##  1 04G               Lansdo~    41.1    -80.6   1044           -5 A             
##  2 06A               Moton ~    32.5    -85.7    264           -6 A             
##  3 06C               Schaum~    42.0    -88.1    801           -6 A             
##  4 06N               Randal~    41.4    -74.4    523           -5 A             
##  5 09J               Jekyll~    31.1    -81.4     11           -5 A             
##  6 0A9               Elizab~    36.4    -82.2   1593           -5 A             
##  7 0G6               Willia~    41.5    -84.5    730           -5 A             
##  8 0G7               Finger~    42.9    -76.8    492           -5 A             
##  9 0P2               Shoest~    39.8    -76.6   1000           -5 U             
## 10 0S9               Jeffer~    48.1   -123.     108           -8 A             
## # ... with 1,448 more rows, and 1 more variable: zona_horaria_iana <chr>

## # A tibble: 26,115 x 15
##    origen  anio   mes   dia  hora temperatura punto_rocio humedad
##    <chr>  <int> <int> <int> <int>       <dbl>       <dbl>   <dbl>
##  1 EWR     2013     1     1     1        39.0        26.1    59.4
##  2 EWR     2013     1     1     2        39.0        27.0    61.6
##  3 EWR     2013     1     1     3        39.0        28.0    64.4
##  4 EWR     2013     1     1     4        39.9        28.0    62.2
##  5 EWR     2013     1     1     5        39.0        28.0    64.4
##  6 EWR     2013     1     1     6        37.9        28.0    67.2
##  7 EWR     2013     1     1     7        39.0        28.0    64.4
##  8 EWR     2013     1     1     8        39.9        28.0    62.2
##  9 EWR     2013     1     1     9        39.9        28.0    62.2
## 10 EWR     2013     1     1    10        41          28.0    59.6
## # ... with 26,105 more rows, and 7 more variables: direccion_viento <dbl>,
## #   velocidad_viento <dbl>, velocidad_rafaga <dbl>, precipitacion <dbl>,
## #   presion <dbl>, visibilidad <dbl>, fecha_hora <dttm>
…
Uniones de transformacin

Una unin de transformacin te permite combinar variables a partir de
dos tablas. Primero busca coincidencias de observaciones de acuerdo a
sus claves y luego copia las variables de una tabla en la otra.

Con select(), seleccionar un subconjunto de vuelos que contenga como
variables a las claves foraneas.

## # A tibble: 336,776 x 8
##     anio   mes   dia  hora origen destino codigo_cola aerolinea
##    <int> <int> <int> <dbl> <chr>  <chr>   <chr>       <chr>    
##  1  2013     1     1     5 EWR    IAH     N14228      UA       
##  2  2013     1     1     5 LGA    IAH     N24211      UA       
##  3  2013     1     1     5 JFK    MIA     N619AA      AA       
##  4  2013     1     1     5 JFK    BQN     N804JB      B6       
##  5  2013     1     1     6 LGA    ATL     N668DN      DL       
##  6  2013     1     1     5 EWR    ORD     N39463      UA       
##  7  2013     1     1     6 EWR    FLL     N516JB      B6       
##  8  2013     1     1     6 LGA    IAD     N829AS      EV       
##  9  2013     1     1     6 JFK    MCO     N593JB      B6       
## 10  2013     1     1     6 LGA    ORD     N3ALAA      AA       
## # ... with 336,766 more rows

Imaginemos que se quiere incluir el nombre completo de cada aerolnea
en vuelos2. Para ello combinamos los datos de aerolineas y vuelos2 con
left_join():

vuelos2 %>%
  select(-origen, -destino) %>%
  left_join(aerolineas, by = "aerolinea")

## # A tibble: 336,776 x 7
##     anio   mes   dia  hora codigo_cola aerolinea nombre                  
##    <int> <int> <int> <dbl> <chr>       <chr>     <chr>                   
##  1  2013     1     1     5 N14228      UA        United Air Lines Inc.   
##  2  2013     1     1     5 N24211      UA        United Air Lines Inc.   
##  3  2013     1     1     5 N619AA      AA        American Airlines Inc.  
##  4  2013     1     1     5 N804JB      B6        JetBlue Airways         
##  5  2013     1     1     6 N668DN      DL        Delta Air Lines Inc.    
##  6  2013     1     1     5 N39463      UA        United Air Lines Inc.   
##  7  2013     1     1     6 N516JB      B6        JetBlue Airways         
##  8  2013     1     1     6 N829AS      EV        ExpressJet Airlines Inc.
##  9  2013     1     1     6 N593JB      B6        JetBlue Airways         
## 10  2013     1     1     6 N3ALAA      AA        American Airlines Inc.  
## # ... with 336,766 more rows

Hagamos otro ejemplo:

vuelos2 %>%
  select(-destino, -codigo_cola, -aerolinea) %>%
  left_join(clima, by = c('anio', 'mes', 'dia', 'hora', 'origen'))

## # A tibble: 336,776 x 15
##     anio   mes   dia  hora origen temperatura punto_rocio humedad
##    <int> <int> <int> <dbl> <chr>        <dbl>       <dbl>   <dbl>
##  1  2013     1     1     5 EWR           39.0        28.0    64.4
##  2  2013     1     1     5 LGA           39.9        25.0    54.8
##  3  2013     1     1     5 JFK           39.0        27.0    61.6
##  4  2013     1     1     5 JFK           39.0        27.0    61.6
##  5  2013     1     1     6 LGA           39.9        25.0    54.8
##  6  2013     1     1     5 EWR           39.0        28.0    64.4
##  7  2013     1     1     6 EWR           37.9        28.0    67.2
##  8  2013     1     1     6 LGA           39.9        25.0    54.8
##  9  2013     1     1     6 JFK           37.9        27.0    64.3
## 10  2013     1     1     6 LGA           39.9        25.0    54.8
## # ... with 336,766 more rows, and 7 more variables: direccion_viento <dbl>,
## #   velocidad_viento <dbl>, velocidad_rafaga <dbl>, precipitacion <dbl>,
## #   presion <dbl>, visibilidad <dbl>, fecha_hora <dttm>

En el primer caso, se podra obtener el mismo resultado usando
mutate() junto a las operaciones de filtro de R base.

vuelos2 %>%
  select(-origen, -destino) %>%
  mutate(nombre = aerolineas$nombre[match(aerolinea, aerolineas$aerolinea)])

## # A tibble: 336,776 x 7
##     anio   mes   dia  hora codigo_cola aerolinea nombre                  
##    <int> <int> <int> <dbl> <chr>       <chr>     <chr>                   
##  1  2013     1     1     5 N14228      UA        United Air Lines Inc.   
##  2  2013     1     1     5 N24211      UA        United Air Lines Inc.   
##  3  2013     1     1     5 N619AA      AA        American Airlines Inc.  
##  4  2013     1     1     5 N804JB      B6        JetBlue Airways         
##  5  2013     1     1     6 N668DN      DL        Delta Air Lines Inc.    
##  6  2013     1     1     5 N39463      UA        United Air Lines Inc.   
##  7  2013     1     1     6 N516JB      B6        JetBlue Airways         
##  8  2013     1     1     6 N829AS      EV        ExpressJet Airlines Inc.
##  9  2013     1     1     6 N593JB      B6        JetBlue Airways         
## 10  2013     1     1     6 N3ALAA      AA        American Airlines Inc.  
## # ... with 336,766 more rows
…
Definiendo las columnas claves

Los pares de tablas siempre se han unido de acuerdo a una nica
variable y esa variable tiene el mismo nombre en ambas tablas. Esta
restriccin se expresa de la forma by = key.

Por defecto, by = NULL, usa todas las variables que aparecen en ambas
tablas, lo que se conoce como unin natural.

## Joining, by = "aerolinea"

## # A tibble: 336,776 x 9
##     anio   mes   dia  hora origen destino codigo_cola aerolinea nombre          
##    <int> <int> <int> <dbl> <chr>  <chr>   <chr>       <chr>     <chr>           
##  1  2013     1     1     5 EWR    IAH     N14228      UA        United Air Line~
##  2  2013     1     1     5 LGA    IAH     N24211      UA        United Air Line~
##  3  2013     1     1     5 JFK    MIA     N619AA      AA        American Airlin~
##  4  2013     1     1     5 JFK    BQN     N804JB      B6        JetBlue Airways 
##  5  2013     1     1     6 LGA    ATL     N668DN      DL        Delta Air Lines~
##  6  2013     1     1     5 EWR    ORD     N39463      UA        United Air Line~
##  7  2013     1     1     6 EWR    FLL     N516JB      B6        JetBlue Airways 
##  8  2013     1     1     6 LGA    IAD     N829AS      EV        ExpressJet Airl~
##  9  2013     1     1     6 JFK    MCO     N593JB      B6        JetBlue Airways 
## 10  2013     1     1     6 LGA    ORD     N3ALAA      AA        American Airlin~
## # ... with 336,766 more rows

Un vector de caracteres, by = x. Esto es similar a una unin
natural, pero usa algunas de las variables comunes. Por ejemplo, vuelos
y aviones tienen la variable anio, pero esta significa cosas distintas
en cada tabla por lo que queremos unir por codigo_cola.

## # A tibble: 336,776 x 16
##    anio.x   mes   dia  hora origen destino codigo_cola aerolinea anio.y tipo    
##     <int> <int> <int> <dbl> <chr>  <chr>   <chr>       <chr>      <int> <chr>   
##  1   2013     1     1     5 EWR    IAH     N14228      UA          1999 Ala fij~
##  2   2013     1     1     5 LGA    IAH     N24211      UA          1998 Ala fij~
##  3   2013     1     1     5 JFK    MIA     N619AA      AA          1990 Ala fij~
##  4   2013     1     1     5 JFK    BQN     N804JB      B6          2012 Ala fij~
##  5   2013     1     1     6 LGA    ATL     N668DN      DL          1991 Ala fij~
##  6   2013     1     1     5 EWR    ORD     N39463      UA          2012 Ala fij~
##  7   2013     1     1     6 EWR    FLL     N516JB      B6          2000 Ala fij~
##  8   2013     1     1     6 LGA    IAD     N829AS      EV          1998 Ala fij~
##  9   2013     1     1     6 JFK    MCO     N593JB      B6          2004 Ala fij~
## 10   2013     1     1     6 LGA    ORD     N3ALAA      AA            NA <NA>    
## # ... with 336,766 more rows, and 6 more variables: fabricante <chr>,
## #   modelo <chr>, motores <int>, asientos <int>, velocidad <int>,
## #   tipo_motor <chr>

Un vector de caracteres con nombres: by = c(a = b). Esto va a
unir la variable a en la tabla x con la variabla b en la tabla y. Las
variables de x se usarn en el output.

## # A tibble: 336,776 x 15
##     anio   mes   dia  hora origen destino codigo_cola aerolinea nombre   latitud
##    <int> <int> <int> <dbl> <chr>  <chr>   <chr>       <chr>     <chr>      <dbl>
##  1  2013     1     1     5 EWR    IAH     N14228      UA        Newark ~    40.7
##  2  2013     1     1     5 LGA    IAH     N24211      UA        La Guar~    40.8
##  3  2013     1     1     5 JFK    MIA     N619AA      AA        John F ~    40.6
##  4  2013     1     1     5 JFK    BQN     N804JB      B6        John F ~    40.6
##  5  2013     1     1     6 LGA    ATL     N668DN      DL        La Guar~    40.8
##  6  2013     1     1     5 EWR    ORD     N39463      UA        Newark ~    40.7
##  7  2013     1     1     6 EWR    FLL     N516JB      B6        Newark ~    40.7
##  8  2013     1     1     6 LGA    IAD     N829AS      EV        La Guar~    40.8
##  9  2013     1     1     6 JFK    MCO     N593JB      B6        John F ~    40.6
## 10  2013     1     1     6 LGA    ORD     N3ALAA      AA        La Guar~    40.8
## # ... with 336,766 more rows, and 5 more variables: longitud <dbl>,
## #   altura <dbl>, zona_horaria <dbl>, horario_verano <chr>,
## #   zona_horaria_iana <chr>

## # A tibble: 336,776 x 15
##     anio   mes   dia  hora origen destino codigo_cola aerolinea nombre   latitud
##    <int> <int> <int> <dbl> <chr>  <chr>   <chr>       <chr>     <chr>      <dbl>
##  1  2013     1     1     5 EWR    IAH     N14228      UA        George ~    30.0
##  2  2013     1     1     5 LGA    IAH     N24211      UA        George ~    30.0
##  3  2013     1     1     5 JFK    MIA     N619AA      AA        Miami I~    25.8
##  4  2013     1     1     5 JFK    BQN     N804JB      B6        <NA>        NA  
##  5  2013     1     1     6 LGA    ATL     N668DN      DL        Hartsfi~    33.6
##  6  2013     1     1     5 EWR    ORD     N39463      UA        Chicago~    42.0
##  7  2013     1     1     6 EWR    FLL     N516JB      B6        Fort La~    26.1
##  8  2013     1     1     6 LGA    IAD     N829AS      EV        Washing~    38.9
##  9  2013     1     1     6 JFK    MCO     N593JB      B6        Orlando~    28.4
## 10  2013     1     1     6 LGA    ORD     N3ALAA      AA        Chicago~    42.0
## # ... with 336,766 more rows, and 5 more variables: longitud <dbl>,
## #   altura <dbl>, zona_horaria <dbl>, horario_verano <chr>,
## #   zona_horaria_iana <chr>
…
Agrega la ubicacin de origen y destino (por ejemplo, latitud y
longitud) a vuelos.

location_airports<- aeropuertos %>%
  select(codigo_aeropuerto, latitud, longitud)

vuelos %>%
  select(anio, mes, dia, hora, origen, destino) %>%
  left_join(location_airports, c("origen"="codigo_aeropuerto")) %>%
  left_join(location_airports, c("destino"="codigo_aeropuerto"))

## # A tibble: 336,776 x 10
##     anio   mes   dia  hora origen destino latitud.x longitud.x latitud.y
##    <int> <int> <int> <dbl> <chr>  <chr>       <dbl>      <dbl>     <dbl>
##  1  2013     1     1     5 EWR    IAH          40.7      -74.2      30.0
##  2  2013     1     1     5 LGA    IAH          40.8      -73.9      30.0
##  3  2013     1     1     5 JFK    MIA          40.6      -73.8      25.8
##  4  2013     1     1     5 JFK    BQN          40.6      -73.8      NA  
##  5  2013     1     1     6 LGA    ATL          40.8      -73.9      33.6
##  6  2013     1     1     5 EWR    ORD          40.7      -74.2      42.0
##  7  2013     1     1     6 EWR    FLL          40.7      -74.2      26.1
##  8  2013     1     1     6 LGA    IAD          40.8      -73.9      38.9
##  9  2013     1     1     6 JFK    MCO          40.6      -73.8      28.4
## 10  2013     1     1     6 LGA    ORD          40.8      -73.9      42.0
## # ... with 336,766 more rows, and 1 more variable: longitud.y <dbl>
…
Depende de los atrasos, si son de llegada o salida. Para poder
analizar la antiguedad deberamos unir los datos de aviones con los
vuelos.

aviones2<- select(aviones, codigo_cola, anio_fabricacion=anio)

vuelos %>% 
  inner_join(aviones2, by="codigo_cola") %>%
  mutate(antiguedad = anio - anio_fabricacion) %>%
  filter(!is.na(antiguedad)) %>%
  group_by(antiguedad) %>%
  summarise(prom_atraso_llegada=mean(atraso_llegada, na.rm=TRUE),
            prom_atraso_salida=mean(atraso_salida, na.rm=TRUE)) 

## # A tibble: 46 x 3
##    antiguedad prom_atraso_llegada prom_atraso_salida
##         <int>               <dbl>              <dbl>
##  1          0                4.01              10.6 
##  2          1                2.85               9.64
##  3          2                5.70              11.8 
##  4          3                5.18              12.5 
##  5          4                4.92              11.0 
##  6          5                5.57              13.2 
##  7          6                7.54              13.7 
##  8          7                9.90              14.6 
##  9          8                9.80              14.7 
## 10          9               10.2               16.4 
## # ... with 36 more rows
…
